<?xml version="1.0" encoding="UTF-8" standalone="no"?>
<!-- Created with Inkscape (http://www.inkscape.org/) -->

<svg
   xmlns:dc="http://purl.org/dc/elements/1.1/"
   xmlns:cc="http://creativecommons.org/ns#"
   xmlns:rdf="http://www.w3.org/1999/02/22-rdf-syntax-ns#"
   xmlns:svg="http://www.w3.org/2000/svg"
   xmlns="http://www.w3.org/2000/svg"
   xmlns:sodipodi="http://sodipodi.sourceforge.net/DTD/sodipodi-0.dtd"
   xmlns:inkscape="http://www.inkscape.org/namespaces/inkscape"
   width="100%"
   height="100%"
   viewBox="200 220 300 650"
   id="svg2"
   version="1.1"
   inkscape:version="0.91 r13725"
   sodipodi:docname="eny.svg">
  <defs
     id="defs4" />
  <sodipodi:namedview
     id="base"
     pagecolor="#ffffff"
     bordercolor="#666666"
     borderopacity="1.0"
     inkscape:pageopacity="0.0"
     inkscape:pageshadow="2"
     inkscape:zoom="0.8"
     inkscape:cx="0"
     inkscape:cy="0"
     inkscape:document-units="px"
     inkscape:current-layer="layer1"
     showgrid="false"
     inkscape:window-width="0"
     inkscape:window-height="0"
     inkscape:window-x="0"
     inkscape:window-y="0"
     inkscape:window-maximized="1"
     inkscape:snap-text-baseline="true" />
  <metadata
     id="metadata7">
    <rdf:RDF>
      <cc:Work
         rdf:about="">
        <dc:format>image/svg+xml</dc:format>
        <dc:type
           rdf:resource="http://purl.org/dc/dcmitype/StillImage" />
        <dc:title></dc:title>
      </cc:Work>
    </rdf:RDF>
  </metadata>
  <g
     inkscape:label="Layer 1"
     inkscape:groupmode="layer"
     id="layer1">
    <path
       style="fill:#008000"
       d="m 324.54277,665.82129 c -9.13888,-0.9495 -31.60334,-5.8267 -41.36607,-8.9809 -72.0482,-23.2771 -116.63913,-78.86402 -128.61854,-160.33533 -1.70626,-11.60422 -2.30123,-18.13808 -3.47913,-38.20762 -0.28237,-4.81104 -1.17161,-9.13283 -2.36622,-11.5 -10.0518,-19.91806 -13.07479,-50.76063 -6.8406,-69.79238 2.97075,-9.0691 9.7012,-21.07201 15.13985,-27 4.06062,-4.42597 65.44716,28.16923 62.45346,39.24436 -2.47571,9.15881 -55.21156,-23.53545 -54.53716,-14.75393 2.46247,32.06422 9.63162,68.94101 41.56597,84.99794 20.97306,10.54548 11.74598,11.31323 57.25462,17.68978 45.62465,6.3928 6.2972,61.13864 50.43668,61.17097 70.58043,0.0517 262.00159,-49.60405 302.03679,-67.27853 24.52659,-10.82784 37.8249,-15.05479 45.2438,-23.10337 4.6479,-5.04237 5.016,-6.82534 1.8265,-8.84807 -3.8805,-2.46108 -9.888,-2.77187 -23.3202,-1.20646 -28.6432,3.33814 -46.1431,4.05122 -98.92975,4.03114 -101.05748,-0.0384 -181.00951,-7.34287 -240,-21.92647 -18.07557,-4.46863 -30.48176,-8.30808 -27.28554,-8.44429 0.94295,-0.0402 12.41795,1.2757 25.5,2.9242 144.85957,18.2541 280.96269,20.65479 360.56849,6.35999 7.8235,-1.40487 9.0396,-1.92018 11.132,-4.71721 4.0675,-5.43732 5.8158,-9.83454 5.8158,-14.62718 0,-13.34256 -11.6886,-22.72414 -53.6461,-43.05763 -52.3279,-25.35919 -126.79691,-54.31728 -163.40707,-63.54261 -5.67733,-1.43062 -10.5213,-2.40224 -10.76439,-2.15916 -0.24308,0.24309 0.66133,2.873 2.0098,5.84425 4.0165,8.85002 5.94809,20.80493 5.23762,32.41658 -0.62938,10.28633 -3.99954,25.57395 -7.34946,33.3383 l -1.87792,4.3526 0.40449,-16.75564 c 0.75762,-31.38382 -4.67614,-53.24963 -18.39381,-74.01798 -12.51145,-18.94214 -32.1616,-32.60296 -56.44391,-39.2399 -8.71687,-2.38253 -11.1487,-2.60004 -29.5,-2.63856 -18.18741,-0.0382 -20.77035,0.17635 -28.5,2.36705 -29.22541,8.28293 -49.2808,24.62552 -59.20419,48.24389 -3.51957,8.37685 -6.7448,22.46292 -6.77417,29.58594 -0.0119,2.8875 -0.44865,5.25 -0.97056,5.25 -1.30209,0 -6.70957,-11.55058 -7.97167,-17.02781 -1.38219,-5.99836 -1.34726,-20.30491 0.0668,-27.34584 1.52332,-7.58518 0.031,-12.45358 -5.69353,-18.57352 -5.39113,-5.76356 -12.32583,-9.3667 -23.41589,-12.16644 -15.05369,-3.80039 -30.79792,-1.49075 -44.47459,6.52431 l -4.6987,2.75362 5.2363,3.16784 c 7.89723,4.77764 11.18334,9.43356 11.70007,16.57722 0.76082,10.51833 -4.3988,20.21692 -13.0484,24.5272 -8.52849,4.24992 -16.77916,3.45998 -41.25143,-3.94957 -11.48205,-3.47645 -21.9237,-4.41865 -30.889802,-2.78734 -9.3021,1.69244 -15.1545,5.60793 -20.2236,13.53046 -2.6981,4.21702 -3.0594,6.242 -0.9704,5.44041 2.2037,-0.84566 14.3384,1.1555 17.8914,2.95052 8.0513,4.06769 11.967202,10.70459 12.022302,20.3761 0.077,13.54333 -5.274002,18.06685 -27.228302,23.01706 -47.9599,10.81393 -62.6288,19.57539 -70.0743001,41.8542 -3.0899,9.24558 -2.5742,9.83545 4.4727,5.11607 6.5303001,-4.37342 13.8088001,-6.98449 19.4696001,-6.98449 4.9158,0 11.7805,3.70273 15.4724,8.34565 2.6228,3.29835 3.0495,4.65036 2.9988,9.5 -0.094,9.02213 -1.9629,11.51482 -23.822,31.77965 -7.5076,6.96 -11.3109,13.93938 -14.5960001,26.78466 -2.2848,8.93412 -2.6526,24.94024 -0.6968,30.31747 l 1.174,3.22742 4.3824001,-8.56222 c 9.4506,-18.46437 20.963,-24.33538 32.1286,-16.38475 4.1912,2.9844 6.3327,7.48674 5.6275,11.83185 -0.315,1.94159 -2.7886,8.05943 -5.4968,13.59522 -6.2712,12.81863 -7.5874,18.93968 -7.5402,35.06505 0.032,10.83655 0.4135,14.08173 2.2935,19.5 3.6648,10.56204 8.0293,16.97963 15.6855,23.06403 l 3.8313,3.04471 1.3449,-6.80437 c 0.7397,-3.7424 2.5692,-8.81383 4.0655,-11.26984 2.7642,-4.53699 10.2294,-11.03453 12.6779,-11.03453 0.7396,0 1.8915,1.6875 2.5597,3.75 8.0755,24.92481 33.634482,50.30606 67.663312,67.19273 38.07663,18.8954 80.51372,28.9376 141.77685,33.5495 16.83894,1.2677 45.31582,1.9478 34.5,0.824 z M 335.04384,384.0103 c -28.72675,-5.11758 -50.49788,-31.06556 -50.76571,-60.50524 -0.1057,-11.61848 1.32133,-18.09179 6.28279,-28.5 12.61432,-26.4625 43.08877,-40.76173 71.42567,-33.51437 20.59347,5.26693 36.51746,19.70308 44.13836,40.01437 2.51889,6.71337 2.81948,8.81104 2.86593,20 0.0425,10.23846 -0.34938,13.76646 -2.16603,19.5 -7.20321,22.73418 -26.51035,39.5052 -50.03929,43.46631 -7.25417,1.22124 -12.9799,1.09982 -21.74172,-0.46107 z m 11.49893,269.43089 c -24.45425,-14.3865 49.73202,42.8094 47.92414,15.56387 -0.45101,-6.79693 49.82649,-72.14207 51.13365,-77.42857 5.09402,-20.60165 223.1538,-141.32946 194.72792,-135.28832 l -276.28571,58.71689 -6.07143,1.19896 c -45.42399,8.97015 -99.62053,-13.72864 -144.42857,-31.4079 -6.325,-2.49557 -14.15257,-5.87129 -17.39461,-7.50162 l -5.89461,-2.96423 0.70764,8.72132 c 3.10706,38.29279 15.57582,77.19851 33.17204,103.50526 16.27299,24.32847 35.28068,41.01414 60.90954,53.46854 19.31679,9.3871 39.22784,14.9264 57.79891,16.0799 l 9.20109,0.5715 z"
       id="path3401"
       inkscape:connector-curvature="0"
       sodipodi:nodetypes="sssssssssssssscssscsssssscssscssssssssssssscsssssccscssssscssccsscscsscscscsssssssssssssssscssscsssscs" />
    <text
       xml:space="preserve"
       style="font-style:normal;font-variant:normal;font-weight:normal;font-stretch:normal;font-size:122.37293243px;line-height:125%;font-family:'Noto Sans Malayalam';-inkscape-font-specification:'Noto Sans Malayalam';letter-spacing:0px;word-spacing:0px;fill:#ffffff;fill-opacity:1;stroke:none;stroke-width:1px;stroke-linecap:butt;stroke-linejoin:miter;stroke-opacity:1"
       x="325.07098"
       y="597.39679"
       id="text3428"
       sodipodi:linespacing="125%"
       transform="scale(0.90742151,1.1020237)"><tspan
         sodipodi:role="line"
         id="tspan3430"
         x="325.07098"
         y="597.39679"
         style="font-style:normal;font-variant:normal;font-weight:normal;font-stretch:normal;font-family:Ubuntu;-inkscape-font-specification:Ubuntu">ny</tspan></text>
    <ellipse
       style="fill:#ff0000"
       id="path3434"
       cx="349.28574"
       cy="321.64792"
       rx="29.285715"
       ry="26.428572" />
  </g>
</svg>
